All Features by Client
======================

Legend:

-  ✓ : available
-  X : not available yet
-  N/A : not applicable for this client

Text messaging
--------------

+------------------------------------+-------+---------+---------+------------+-----+-------+
| **Client**                         | Linux | Windows | Android | Android TV | iOS | macOS |
+====================================+=======+=========+=========+============+=====+=======+
| Text Messaging                     | ✓     | ✓       | ✓       | ✓          | ✓   | ✓     |
+------------------------------------+-------+---------+---------+------------+-----+-------+
| Group chat                         | X     | X       | X       | X          | X   | X     |
+------------------------------------+-------+---------+---------+------------+-----+-------+
| Clear History                      | ✓     | ✓       | ✓       | X          | ✓   | ✓     |
+------------------------------------+-------+---------+---------+------------+-----+-------+
| Chat history shared across devices | X     | X       | X       | X          | X   | X     |
+------------------------------------+-------+---------+---------+------------+-----+-------+
| Send Files                         | ✓     | ✓       | ✓       | X          | ✓   | ✓     |
+------------------------------------+-------+---------+---------+------------+-----+-------+
| Auto accept images                 | ✓     | ✓       | ✓       | X          | ✓   | ✓     |
+------------------------------------+-------+---------+---------+------------+-----+-------+
| Custom download location           | ✓     | ✓       | X       | X          | X   | ✓     |
+------------------------------------+-------+---------+---------+------------+-----+-------+
| Typing indicator                   | ✓     | ✓       | ✓       | X          | ✓   | X     |
+------------------------------------+-------+---------+---------+------------+-----+-------+
| Read status                        | X     | X       | ✓       | X          | ✓   | X     |
+------------------------------------+-------+---------+---------+------------+-----+-------+

Calling
-------

====================== ===== ======= ======= ========== === =====
**Client**             Linux Windows Android Android TV iOS macOS
====================== ===== ======= ======= ========== === =====
Audio Calling          ✓     ✓       ✓       X          ✓   ✓
Video Calling          ✓     ✓       ✓       ✓          ✓   ✓
Host call conference   ✓     ✓       ✓       ✓          ✓   ✓
Auto bitrate           ✓     ✓       X       X          ✓   ✓
Change video quality   ✓     ✓       ✓       X          X   X
Custom ringtones       ✓     ✓       ✓       X          X   ✓
Select camera          ✓     ✓       ✓       X          ✓   ✓
Video call recording   ✓     ✓       X       X          X   ✓
Leave audio message    ✓     ✓       ✓       X          ✓   ✓
Leave video message    ✓     ✓       ✓       X          ✓   ✓
Screen sharing         ✓(1)  ✓       ✓       X          X   ✓
media sharing          ✓     ✓       X       X          X   ✓
Hardware encoding \*   ✓     ✓       ✓       ✓          ✓   ✓
Hardware decoding \*   ✓     ✓       ✓       ✓          ✓   ✓
Mute sound             ✓     ✓       ✓       X          ✓   ✓
Texting while on call  ✓     ✓       ✓       X          ✓   ✓
Remote recording notif ✓     X       X       X          X   X
Rendez-vous mode       ✓     ✓       X       ✓          X   ✓
Conference Layout      ✓     ✓       ✓       X          ✓   ✓
====================== ===== ======= ======= ========== === =====

\* This enables 4k video calling support

(1) only on X (not Wayland)

Account settings
----------------

=========================== ===== ======= ======= ========== === =====
**Client**                  Linux Windows Android Android TV iOS macOS
=========================== ===== ======= ======= ========== === =====
Profile avatar              ✓     ✓       ✓       ✓          ✓   ✓
Disable account             ✓     ✓       ✓       X          ✓   ✓
Delete account              ✓     ✓       ✓       X          ✓   ✓
Contact availability        ✓     ✓       ✓       ✓          ✓   ✓
Register username           ✓     ✓       ✓       ✓          ✓   ✓
Delete Contacts             ✓     ✓       ✓       ✓          ✓   ✓
Block Contacts              ✓     ✓       ✓       X          ✓   ✓
Link new device via DHT     ✓     ✓       ✓       ✓          ✓   ✓
Link new device via archive ✓     ✓       X       X          X   ✓
Auto answer                 ✓     ✓       ✓       ✓          X   ✓
Custom ringtones            ✓     ✓       ✓       X          X   ✓
=========================== ===== ======= ======= ========== === =====

Other features
--------------

+--------------------------------+-------+---------+---------+------------+-----+-------+
| **Client**                     | Linux | Windows | Android | Android TV | iOS | macOS |
+================================+=======+=========+=========+============+=====+=======+
| Scan QR Code                   | X     | X       | ✓       | X          | ✓   | X     |
+--------------------------------+-------+---------+---------+------------+-----+-------+
| Display QR Code                | ✓     | ✓       | ✓       | ✓          | ✓   | ✓     |
+--------------------------------+-------+---------+---------+------------+-----+-------+
| Ban contact                    | ✓     | ✓       | ✓       | X          | ✓   | ✓     |
+--------------------------------+-------+---------+---------+------------+-----+-------+
| System notifications           | ✓     | ✓       | ✓       | ✓          | ✓   | ✓     |
+--------------------------------+-------+---------+---------+------------+-----+-------+
| Supported languages            | 85    | 85      | 85      | 85         | 85  | 85    |
+--------------------------------+-------+---------+---------+------------+-----+-------+
| Contacts shared across devices | ✓     | ✓       | ✓       | ✓          | ✓   | ✓     |
+--------------------------------+-------+---------+---------+------------+-----+-------+
| Multi account                  | ✓     | ✓       | ✓       | X          | ✓   | ✓     |
+--------------------------------+-------+---------+---------+------------+-----+-------+
| SIP account                    | ✓     | ✓       | ✓       | X          | ✓   | ✓     |
+--------------------------------+-------+---------+---------+------------+-----+-------+
| SIP transferring               | ✓     | X       | X       | X          | X   | X     |
+--------------------------------+-------+---------+---------+------------+-----+-------+
| Dark theme support             | ✓     | ✓       | ✓       | ✓          | X   | ✓     |
+--------------------------------+-------+---------+---------+------------+-----+-------+
| JAMS support                   | ✓     | ✓       | ✓       | X          | ✓   | ✓     |
+--------------------------------+-------+---------+---------+------------+-----+-------+
| Plugin support                 | ✓     | ✓       | ✓       | ✓          | X   | X     |
+--------------------------------+-------+---------+---------+------------+-----+-------+

Advanced settings
-----------------

================== ===== ======= ======= ========== === =====
**Client**         Linux Windows Android Android TV iOS macOS
================== ===== ======= ======= ========== === =====
DHT Proxy support  ✓     ✓       ✓       X          ✓   ✓
Push notification  N/A   N/A     ✓       N/A        ✓   N/A
UPnP               ✓     ✓       ✓       ✓          X   ✓
TURN configuration ✓     ✓       ✓       ✓          X   ✓
================== ===== ======= ======= ========== === =====
